{
  "results":[
    {
      "popularity":532.535,
      "vote_count":1553,
      "video":false,
      "poster_path":"\/db32LaOibwEliAmSL2jjDF6oDdj.jpg",
      "id":181812,
      "adult":false,
      "backdrop_path":"\/jOzrELAzFxtMx2I4uDGHOotdfsS.jpg",
      "original_language":"en",
      "original_title":"Star Wars: The Rise of Skywalker",
      "genre_ids":[
        28,
        12,
        878
      ],
      "title":"Star Wars: The Rise of Skywalker",
      "vote_average":6.6,
      "overview":"The surviving Resistance faces the First Order once again as the journey of Rey, Finn and Poe Dameron continues. With the power and knowledge of generations behind them, the final battle begins.",
      "release_date":"2019-12-18"
    },
    {
      "popularity":356.765,
      "vote_count":662,
      "video":false,
      "poster_path":"\/jyw8VKYEiM1UDzPB7NsisUgBeJ8.jpg",
      "id":512200,
      "adult":false,
      "backdrop_path":"\/zTxHf9iIOCqRbxvl8W5QYKrsMLq.jpg",
      "original_language":"en",
      "original_title":"Jumanji: The Next Level",
      "genre_ids":[
        28,
        12,
        35,
        14
      ],
      "title":"Jumanji: The Next Level",
      "vote_average":6.7,
      "overview":"As the gang return to Jumanji to rescue one of their own, they discover that nothing is as they expect. The players will have to brave parts unknown and unexplored in order to escape the world’s most dangerous game.",
      "release_date":"2019-12-04"
    },
    {
      "popularity":309.264,
      "vote_count":72,
      "video":false,
      "poster_path":"\/vn94LlNrbUWIZZyAdmvUepFBeaY.jpg",
      "id":449924,
      "adult":false,
      "backdrop_path":"\/ekP6EVxL81lZ4ivcqPsoZ72rY0h.jpg",
      "original_language":"cn",
      "original_title":"葉問4",
      "genre_ids":[
        28,
        18,
        36
      ],
      "title":"Ip Man 4: The Finale",
      "vote_average":6.3,
      "overview":"Following the death of his wife, Ip Man travels to San Francisco to ease tensions between the local kung fu masters and his star student, Bruce Lee, while searching for a better future for his son.",
      "release_date":"2019-12-20"
    },
    {
      "popularity":176.597,
      "vote_count":1345,
      "video":false,
      "poster_path":"\/pjeMs3yqRmFL3giJy4PMXWZTTPa.jpg",
      "id":330457,
      "adult":false,
      "backdrop_path":"\/xJWPZIYOEFIjZpBL7SVBGnzRYXp.jpg",
      "original_language":"en",
      "original_title":"Frozen II",
      "genre_ids":[
        12,
        16,
        10402,
        10751
      ],
      "title":"Frozen II",
      "vote_average":7,
      "overview":"Elsa, Anna, Kristoff and Olaf head far into the forest to learn the truth about an ancient mystery of their kingdom.",
      "release_date":"2019-11-20"
    },
    {
      "popularity":157.046,
      "vote_count":1000,
      "video":false,
      "poster_path":"\/pThyQovXQrw2m0s9x82twj48Jq4.jpg",
      "id":546554,
      "adult":false,
      "backdrop_path":"\/AbRYlvwAKHs0YuyNO6NX9ofq4l6.jpg",
      "original_language":"en",
      "original_title":"Knives Out",
      "genre_ids":[
        35,
        9648,
        53
      ],
      "title":"Knives Out",
      "vote_average":7.8,
      "overview":"When renowned crime novelist Harlan Thrombey is found dead at his estate just after his 85th birthday, the inquisitive and debonair Detective Benoit Blanc is mysteriously enlisted to investigate. From Harlan's dysfunctional family to his devoted staff, Blanc sifts through a web of red herrings and self-serving lies to uncover the truth behind Harlan's untimely death.",
      "release_date":"2019-11-27"
    },
    {
      "popularity":125.689,
      "vote_count":67,
      "video":false,
      "poster_path":"\/MBiKqTsouYqAACLYNDadsjhhC0.jpg",
      "id":486589,
      "adult":false,
      "backdrop_path":"\/bga3i5jcejBekr2FCGJga1fYCh.jpg",
      "original_language":"en",
      "original_title":"Red Shoes and the Seven Dwarfs",
      "genre_ids":[
        16,
        10749
      ],
      "title":"Red Shoes and the Seven Dwarfs",
      "vote_average":6.4,
      "overview":"Princes who have been turned into Dwarfs seek the red shoes of a lady in order to break the spell, although it will not be easy.",
      "release_date":"2019-07-25"
    },
    {
      "popularity":136.023,
      "vote_count":34,
      "video":false,
      "poster_path":"\/30YacPAcxpNemhhwX0PVUl9pVA3.jpg",
      "id":431693,
      "adult":false,
      "backdrop_path":"\/qlYxtqVfu2LOdvYMMDPCSGX0Oz0.jpg",
      "original_language":"en",
      "original_title":"Spies in Disguise",
      "genre_ids":[
        28,
        12,
        16,
        35
      ],
      "title":"Spies in Disguise",
      "vote_average":8.1,
      "overview":"When the world's best spy is turned into a pigeon, he must rely on his nerdy tech officer to save the world.",
      "release_date":"2019-12-24"
    },
    {
      "popularity":99.476,
      "vote_count":1998,
      "video":false,
      "poster_path":"\/7IiTTgloJzvGI1TAYymCfbfl3vT.jpg",
      "id":496243,
      "adult":false,
      "backdrop_path":"\/TU9NIjwzjoKPwQHoHshkFcQUCG.jpg",
      "original_language":"ko",
      "original_title":"기생충",
      "genre_ids":[
        35,
        53
      ],
      "title":"Parasite",
      "vote_average":8.5,
      "overview":"All unemployed, Ki-taek's family takes peculiar interest in the wealthy and glamorous Parks for their livelihood until they get entangled in an unexpected incident.",
      "release_date":"2019-05-30"
    },
    {
      "popularity":82.858,
      "vote_count":82,
      "video":false,
      "poster_path":"\/9zvjgr1v8pwFYQNHZTtnKNQUWmw.jpg",
      "id":536869,
      "adult":false,
      "backdrop_path":"\/2wWHK7QRASgtvnIk9zYh5KVVLaZ.jpg",
      "original_language":"en",
      "original_title":"Cats",
      "genre_ids":[
        35,
        18,
        14,
        10402
      ],
      "title":"Cats",
      "vote_average":4.8,
      "overview":"A tribe of cats called the Jellicles must decide yearly which one will ascend to the Heaviside Layer and come back to a new Jellicle life.",
      "release_date":"2019-12-19"
    },
    {
      "popularity":78.56,
      "vote_count":102,
      "video":false,
      "poster_path":"\/kZHnblqmTBUBgzYBIxWIz9txsEi.jpg",
      "id":514921,
      "adult":false,
      "backdrop_path":"\/yBxq43FaskaXDGKWNJQmM75WoGS.jpg",
      "original_language":"en",
      "original_title":"The Aeronauts",
      "genre_ids":[
        12,
        18,
        10749
      ],
      "title":"The Aeronauts",
      "vote_average":6.5,
      "overview":"In 1862, daredevil balloon pilot Amelia Wren teams up with pioneering meteorologist James Glaisher  to advance human knowledge of the weather and fly higher than anyone in history. While breaking records and advancing scientific discovery, their voyage to the very edge of existence helps the unlikely pair find their place in the world they have left far below them. But they face physical and emotional challenges in the thin air, as the ascent becomes a fight for survival.",
      "release_date":"2019-11-04"
    },
    {
      "popularity":64.244,
      "vote_count":249,
      "video":false,
      "poster_path":"\/3nk9UoepYmv1G9oP18q6JJCeYwN.jpg",
      "id":503919,
      "adult":false,
      "backdrop_path":"\/i51wnN9phojyn14xHjQt6rv1r0x.jpg",
      "original_language":"en",
      "original_title":"The Lighthouse",
      "genre_ids":[
        18,
        14,
        27
      ],
      "title":"The Lighthouse",
      "vote_average":8,
      "overview":"Two lighthouse keepers try to maintain their sanity while living on a remote and mysterious New England island in the 1890s.",
      "release_date":"2019-10-18"
    },
    {
      "popularity":74.563,
      "vote_count":48,
      "video":false,
      "poster_path":"\/mSmiB8XjUnR1GSIljuCPGsk0cwX.jpg",
      "id":331482,
      "adult":false,
      "backdrop_path":"\/3uTxPIdVEXxHpsHOHdJC24QebBV.jpg",
      "original_language":"en",
      "original_title":"Little Women",
      "genre_ids":[
        18,
        10749
      ],
      "title":"Little Women",
      "vote_average":8.3,
      "overview":"Four sisters come of age in America in the aftermath of the Civil War.",
      "release_date":"2019-12-25"
    },
    {
      "popularity":56.304,
      "vote_count":29,
      "video":false,
      "poster_path":"\/pbGveUC8mk0QRkdXpERPLbMFnrg.jpg",
      "id":466081,
      "adult":false,
      "backdrop_path":"\/xvmbs8vzXkBE0bvcXIBcMiNQMmL.jpg",
      "original_language":"en",
      "original_title":"The Informer",
      "genre_ids":[
        80,
        18
      ],
      "title":"The Informer",
      "vote_average":6.6,
      "overview":"An ex-convict working undercover intentionally gets himself incarcerated again in order to infiltrate the mob at a maximum security prison.",
      "release_date":"2019-08-30"
    },
    {
      "popularity":49.041,
      "vote_count":27,
      "video":false,
      "poster_path":"\/3cn0FmkBPu6KzN2SQM0k2JfPvkB.jpg",
      "id":530915,
      "adult":false,
      "backdrop_path":"\/ds9GKAMhxv5AbprmZ2xCpK8FiEG.jpg",
      "original_language":"en",
      "original_title":"1917",
      "genre_ids":[
        18,
        36,
        10752
      ],
      "title":"1917",
      "vote_average":7.6,
      "overview":"At the height of the First World War, two young British soldiers, Schofield and Blake are given a seemingly impossible mission. In a race against time, they must cross enemy territory and deliver a message that will stop a deadly attack on hundreds of soldiers—Blake's own brother among them.",
      "release_date":"2019-12-10"
    },
    {
      "popularity":47.622,
      "vote_count":148,
      "video":false,
      "poster_path":"\/7GsM4mtM0worCtIVeiQt28HieeN.jpg",
      "id":515001,
      "adult":false,
      "backdrop_path":"\/agoBZfL1q5G79SD0npArSlJn8BH.jpg",
      "original_language":"en",
      "original_title":"Jojo Rabbit",
      "genre_ids":[
        35,
        18,
        10752
      ],
      "title":"Jojo Rabbit",
      "vote_average":8,
      "overview":"A World War II satire that follows a lonely German boy whose world view is turned upside down when he discovers his single mother is hiding a young Jewish girl in their attic. Aided only by his idiotic imaginary friend, Adolf Hitler, Jojo must confront his blind nationalism.",
      "release_date":"2019-10-18"
    },
    {
      "popularity":42.251,
      "vote_count":47,
      "video":false,
      "poster_path":"\/zPQzLZnfVw9fbXyxxglyOsmQBlu.jpg",
      "id":366668,
      "adult":false,
      "backdrop_path":"\/axmxVeX5R1FfN7w4LNFehskDxW1.jpg",
      "original_language":"en",
      "original_title":"Playmobil: The Movie",
      "genre_ids":[
        12,
        16,
        35,
        10751
      ],
      "title":"Playmobil: The Movie",
      "vote_average":5.3,
      "overview":"Marla is forced to abandon her carefully structured life to embark on an epic journey to find her younger brother Charlie who has disappeared into the vast and wondrous animated world of Playmobil toys.",
      "release_date":"2019-08-07"
    },
    {
      "popularity":55.404,
      "vote_count":65,
      "video":false,
      "poster_path":"\/8lSuziVF8TChwOczftjbxhpuu09.jpg",
      "id":535292,
      "adult":false,
      "backdrop_path":"\/blUCzzkFNWrur18J0BvIYBdbquv.jpg",
      "original_language":"en",
      "original_title":"21 Bridges",
      "genre_ids":[
        28,
        80,
        18,
        53
      ],
      "title":"21 Bridges",
      "vote_average":6.2,
      "overview":"A disgraced NYPD detective after being thrust into a citywide manhunt for a cop killer, is given a shot at redemption.",
      "release_date":"2019-10-24"
    },
    {
      "popularity":47.895,
      "vote_count":125,
      "video":false,
      "poster_path":"\/3NTEMlG5mQdIAlKDl3AJG0rX29Z.jpg",
      "id":531428,
      "adult":false,
      "backdrop_path":"\/nzu3oODAmohjttfKMhMskp5DazD.jpg",
      "original_language":"fr",
      "original_title":"Portrait de la jeune fille en feu",
      "genre_ids":[
        18,
        36,
        10749
      ],
      "title":"Portrait of a Lady on Fire",
      "vote_average":8.5,
      "overview":"On an isolated island in Brittany at the end of the eighteenth century, a female painter is obliged to paint a wedding portrait of a young woman.",
      "release_date":"2019-09-18"
    },
    {
      "popularity":38.237,
      "vote_count":6,
      "video":false,
      "poster_path":"\/4YJNp1cquIkX8JxFwkKNEFQ9tgr.jpg",
      "id":522212,
      "adult":false,
      "backdrop_path":"\/46n5PoihM5qJxe8g6jOIW8vxQ0M.jpg",
      "original_language":"en",
      "original_title":"Just Mercy",
      "genre_ids":[
        18
      ],
      "title":"Just Mercy",
      "vote_average":7.2,
      "overview":"The powerful true story of Harvard-educated lawyer Bryan Stevenson, who goes to Alabama to defend the disenfranchised and wrongly condemned — including Walter McMillian, a man sentenced to death despite evidence proving his innocence. Bryan fights tirelessly for Walter with the system stacked against them.",
      "release_date":"2019-12-25"
    },
    {
      "popularity":38.825,
      "vote_count":238,
      "video":false,
      "poster_path":"\/uBnE3ZRC11E5svUf5u78mbEj591.jpg",
      "id":458897,
      "adult":false,
      "backdrop_path":"\/a0xTB1vBxMGt6LGG4N7k1wO9lfL.jpg",
      "original_language":"en",
      "original_title":"Charlie's Angels",
      "genre_ids":[
        28,
        12,
        35
      ],
      "title":"Charlie's Angels",
      "vote_average":6.4,
      "overview":"When a systems engineer blows the whistle on a dangerous technology, Charlie's Angels from across the globe are called into action, putting their lives on the line to protect society.",
      "release_date":"2019-11-14"
    }
  ],
  "page":1,
  "total_results":373,
  "dates":{
    "maximum":"2020-01-25",
    "minimum":"2019-12-29"
  },
  "total_pages":19
}